{"response": 
	{"agendas": 
		{"agenda": [
			{
				"date": "2013-04-07",
				"entry": 
				{
					"id": "3",
					"name": "Week 1 Tuesday",
					"content": "<div id=\"selection\"> <div id=\"body\" class=\" breakfast\"> <p class=\" stopmargin botmargin\"> <span>Breakfast:</span> Omelet</p> </div> <div id=\"body\" class=\" lunch\"> <p class=\" stopmargin\"> <span>Lunch:</span> </p> </div> <div id=\"body\" class=\" supper\"> <p class=\" stopmargin\"> <span>Supper:</span> </p> </div> <div id=\"body\" class=\" lunch\"> <p class=\"\">lunch1</p> </div> <div id=\"body\" class=\" supper\"> <p class=\"\">supper1</p> </div> <div id=\"body\" class=\" lunch\"> <p class=\"\">lunch2</p> </div> <div id=\"body\" class=\" supper\"> <p class=\"\">supper2</p> </div> <div id=\"body\" class=\" lunch\"> <p class=\"\">lunch3</p> </div> <div id=\"body\" class=\" supper\"> <p class=\"\">supper3</p> </div> <div id=\"body\" class=\" lunch\"> <p class=\"\">lunch4</p> </div> <div id=\"body\" class=\" supper\"> <p class=\"\">supper4</p> </div> <div id=\"body\" class=\" lunch\"> <p class=\"\">lunch5</p> </div> <div id=\"body\" class=\" supper\"> <p class=\"\">supper5</p> </div> <div id=\"body\" class=\" lunch\"> <p class=\"\"/> </div> <div id=\"body\" class=\" supper\"> <p class=\"\"/> </div> </div>",
					"contentType": "meal"
				}
			},
			{
				"date": "2013-04-08",
				"entry": 
				{
					"id": "3",
					"name": "Week 1 Tuesday",
					"content": "<div id=\"selection\"> <div id=\"body\" class=\" breakfast\"> <p class=\" stopmargin botmargin\"> <span>Breakfast:</span> Oatmeal</p> </div> <div id=\"body\" class=\" lunch\"> <p class=\" stopmargin\"> <span>Lunch:</span> </p> </div> <div id=\"body\" class=\" supper\"> <p class=\" stopmargin\"> <span>Supper:</span> </p> </div> <div id=\"body\" class=\" lunch\"> <p class=\"\">lunch1</p> </div> <div id=\"body\" class=\" supper\"> <p class=\"\">supper1</p> </div> <div id=\"body\" class=\" lunch\"> <p class=\"\">lunch2</p> </div> <div id=\"body\" class=\" supper\"> <p class=\"\">supper2</p> </div> <div id=\"body\" class=\" lunch\"> <p class=\"\">lunch3</p> </div> <div id=\"body\" class=\" supper\"> <p class=\"\">supper3</p> </div> <div id=\"body\" class=\" lunch\"> <p class=\"\">lunch4</p> </div> <div id=\"body\" class=\" supper\"> <p class=\"\">supper4</p> </div> <div id=\"body\" class=\" lunch\"> <p class=\"\">lunch5</p> </div> <div id=\"body\" class=\" supper\"> <p class=\"\">supper5</p> </div> <div id=\"body\" class=\" lunch\"> <p class=\"\"/> </div> <div id=\"body\" class=\" supper\"> <p class=\"\"/> </div> </div>",
					"contentType": "meal"
				}
			},
			{
				"date": "2013-04-09",
				"entry": 
				{
					"id": "3",
					"name": "Week 1 Tuesday",
					"content": "<div id=\"selection\"> <div id=\"body\" class=\" breakfast\"> <p class=\" stopmargin botmargin\"> <span>Breakfast:</span> Fruit</p> </div> <div id=\"body\" class=\" lunch\"> <p class=\" stopmargin\"> <span>Lunch:</span> </p> </div> <div id=\"body\" class=\" supper\"> <p class=\" stopmargin\"> <span>Supper:</span> </p> </div> <div id=\"body\" class=\" lunch\"> <p class=\"\">lunch1</p> </div> <div id=\"body\" class=\" supper\"> <p class=\"\">supper1</p> </div> <div id=\"body\" class=\" lunch\"> <p class=\"\">lunch2</p> </div> <div id=\"body\" class=\" supper\"> <p class=\"\">supper2</p> </div> <div id=\"body\" class=\" lunch\"> <p class=\"\">lunch3</p> </div> <div id=\"body\" class=\" supper\"> <p class=\"\">supper3</p> </div> <div id=\"body\" class=\" lunch\"> <p class=\"\">lunch4</p> </div> <div id=\"body\" class=\" supper\"> <p class=\"\">supper4</p> </div> <div id=\"body\" class=\" lunch\"> <p class=\"\">lunch5</p> </div> <div id=\"body\" class=\" supper\"> <p class=\"\">supper5</p> </div> <div id=\"body\" class=\" lunch\"> <p class=\"\"/> </div> <div id=\"body\" class=\" supper\"> <p class=\"\"/> </div> </div>",
					"contentType": "meal"
				}
			},
			{
				"date": "2013-04-10"
			},
			{
				"date": "2013-04-11"
			},
			{
				"date": "2013-04-12"
			},
			{
				"date": "2013-04-13",
				"entry": 
				{
					"id": "3",
					"name": "Week 1 Tuesday",
					"content": "<div id=\"selection\"> <div id=\"body\" class=\" breakfast\"> <p class=\" stopmargin botmargin\"> <span>Breakfast:</span> Fasting</p> </div> <div id=\"body\" class=\" lunch\"> <p class=\" stopmargin\"> <span>Lunch:</span> </p> </div> <div id=\"body\" class=\" supper\"> <p class=\" stopmargin\"> <span>Supper:</span> </p> </div> <div id=\"body\" class=\" lunch\"> <p class=\"\">lunch1</p> </div> <div id=\"body\" class=\" supper\"> <p class=\"\">supper1</p> </div> <div id=\"body\" class=\" lunch\"> <p class=\"\">lunch2</p> </div> <div id=\"body\" class=\" supper\"> <p class=\"\">supper2</p> </div> <div id=\"body\" class=\" lunch\"> <p class=\"\">lunch3</p> </div> <div id=\"body\" class=\" supper\"> <p class=\"\">supper3</p> </div> <div id=\"body\" class=\" lunch\"> <p class=\"\">lunch4</p> </div> <div id=\"body\" class=\" supper\"> <p class=\"\">supper4</p> </div> <div id=\"body\" class=\" lunch\"> <p class=\"\">lunch5</p> </div> <div id=\"body\" class=\" supper\"> <p class=\"\">supper5</p> </div> <div id=\"body\" class=\" lunch\"> <p class=\"\"/> </div> <div id=\"body\" class=\" supper\"> <p class=\"\"/> </div> </div>",
					"contentType": "meal"
				}
			}
		]}
	}
}